{
  "results": [{
    "popularity": 2234.266,
    "vote_count": 182,
    "video": false,
    "poster_path": "\/9HT9982bzgN5on1sLRmc1GMn6ZC.jpg",
    "id": 671039,
    "adult": false,
    "backdrop_path": "\/gnf4Cb2rms69QbCnGFJyqwBWsxv.jpg",
    "original_language": "fr",
    "original_title": "Bronx",
    "genre_ids": [53, 28, 18, 80],
    "title": "Rogue City",
    "vote_average": 6.1,
    "overview": "Caught in the crosshairs of police corruption and Marseille’s warring gangs, a loyal cop must protect his squad by taking matters into his own hands.",
    "release_date": "2020-10-30"
  }, {
    "popularity": 1921.272,
    "vote_count": 139,
    "video": false,
    "poster_path": "\/ugZW8ocsrfgI95pnQ7wrmKDxIe.jpg",
    "id": 724989,
    "adult": false,
    "backdrop_path": "\/86L8wqGMDbwURPni2t7FQ0nDjsH.jpg",
    "original_language": "en",
    "original_title": "Hard Kill",
    "genre_ids": [28, 53],
    "title": "Hard Kill",
    "vote_average": 5.1,
    "overview": "The work of billionaire tech CEO Donovan Chalmers is so valuable that he hires mercenaries to protect it, and a terrorist group kidnaps his daughter just to get it.",
    "release_date": "2020-10-23"
  }, {
    "popularity": 1656.547,
    "vote_count": 685,
    "video": false,
    "poster_path": "\/betExZlgK0l7CZ9CsCBVcwO1OjL.jpg",
    "id": 531219,
    "adult": false,
    "backdrop_path": "\/8rIoyM6zYXJNjzGseT3MRusMPWl.jpg",
    "original_language": "en",
    "original_title": "Roald Dahl's The Witches",
    "genre_ids": [14, 10751, 12, 35, 27],
    "title": "Roald Dahl's The Witches",
    "vote_average": 6.9,
    "overview": "In late 1967, a young orphaned boy goes to live with his loving grandma in the rural Alabama town of Demopolis. As the boy and his grandmother encounter some deceptively glamorous but thoroughly diabolical witches, she wisely whisks him away to a seaside resort. Regrettably, they arrive at precisely the same time that the world's Grand High Witch has gathered.",
    "release_date": "2020-10-26"
  }, {
    "popularity": 1575.239,
    "vote_count": 317,
    "video": false,
    "poster_path": "\/7D430eqZj8y3oVkLFfsWXGRcpEG.jpg",
    "id": 528085,
    "adult": false,
    "backdrop_path": "\/5UkzNSOK561c2QRy2Zr4AkADzLT.jpg",
    "original_language": "en",
    "original_title": "2067",
    "genre_ids": [878, 53, 18],
    "title": "2067",
    "vote_average": 4.8,
    "overview": "A lowly utility worker is called to the future by a mysterious radio signal, he must leave his dying wife to embark on a journey that will force him to face his deepest fears in an attempt to change the fabric of reality and save humankind from its greatest environmental crisis yet.",
    "release_date": "2020-10-01"
  }, {
    "popularity": 1111.204,
    "vote_count": 652,
    "video": false,
    "poster_path": "\/xrI4EnZWftpo1B7tTvlMUXVOikd.jpg",
    "id": 340102,
    "adult": false,
    "backdrop_path": "\/eCIvqa3QVCx6H09bdeOS8Al2Sqy.jpg",
    "original_language": "en",
    "original_title": "The New Mutants",
    "genre_ids": [28, 878, 27, 12],
    "title": "The New Mutants",
    "vote_average": 6.3,
    "overview": "Five young mutants, just discovering their abilities while held in a secret facility against their will, fight to escape their past sins and save themselves.",
    "release_date": "2020-08-26"
  }, {
    "popularity": 1008.084,
    "vote_count": 142,
    "video": false,
    "poster_path": "\/hddzYJtfYYeMDOQVcH58n8m1W3A.jpg",
    "id": 741074,
    "adult": false,
    "backdrop_path": "\/DA7gzvlBoxMNL0XmGgTZOyv67P.jpg",
    "original_language": "en",
    "original_title": "Once Upon a Snowman",
    "genre_ids": [16, 10751, 35, 14],
    "title": "Once Upon a Snowman",
    "vote_average": 7.1,
    "overview": "The previously untold origins of Olaf, the innocent and insightful, summer-loving snowman are revealed as we follow Olaf’s first steps as he comes to life and searches for his identity in the snowy mountains outside Arendelle.",
    "release_date": "2020-10-23"
  }, {
    "popularity": 903.984,
    "vote_count": 1804,
    "video": false,
    "poster_path": "\/kiX7UYfOpYrMFSAGbI6j1pFkLzQ.jpg",
    "id": 613504,
    "adult": false,
    "backdrop_path": "\/6hgItrYQEG33y0I7yP2SRl2ei4w.jpg",
    "original_language": "en",
    "original_title": "After We Collided",
    "genre_ids": [10749, 18],
    "title": "After We Collided",
    "vote_average": 7.3,
    "overview": "Tessa finds herself struggling with her complicated relationship with Hardin; she faces a dilemma that could change their lives forever.",
    "release_date": "2020-09-02"
  }, {
    "popularity": 851.593,
    "vote_count": 11,
    "video": false,
    "poster_path": "\/AnVD7Gn14uOTQhcc5xYZGQ9DRvS.jpg",
    "id": 624779,
    "adult": false,
    "backdrop_path": "\/h5sUE9jqoYrjsFjANJXL0gpZGye.jpg",
    "original_language": "en",
    "original_title": "VFW",
    "genre_ids": [28, 53, 27],
    "title": "VFW",
    "vote_average": 4.7,
    "overview": "A typical night for veterans at a VFW turns into an all-out battle for survival when a desperate teen runs into the bar with a bag of stolen drugs. When a gang of violent punks come looking for her, the vets use every weapon at their disposal to protect the girl and themselves from an unrelenting attack.",
    "release_date": "2020-10-14"
  }, {
    "popularity": 771.513,
    "vote_count": 184,
    "video": false,
    "poster_path": "\/6CoRTJTmijhBLJTUNoVSUNxZMEI.jpg",
    "id": 694919,
    "adult": false,
    "backdrop_path": "\/pq0JSpwyT2URytdFG0euztQPAyR.jpg",
    "original_language": "en",
    "original_title": "Money Plane",
    "genre_ids": [28],
    "title": "Money Plane",
    "vote_average": 6,
    "overview": "A professional thief with $40 million in debt and his family's life on the line must commit one final heist - rob a futuristic airborne casino filled with the world's most dangerous criminals.",
    "release_date": "2020-09-29"
  }, {
    "popularity": 768.918,
    "vote_count": 401,
    "video": false,
    "poster_path": "\/lQfdytwN7eh0tXWjIiMceFdBBvD.jpg",
    "id": 560050,
    "adult": false,
    "backdrop_path": "\/htBUhLSS7FfHtydgYxUWjL3J1Q1.jpg",
    "original_language": "en",
    "original_title": "Over the Moon",
    "genre_ids": [16, 12, 10751, 14],
    "title": "Over the Moon",
    "vote_average": 7.7,
    "overview": "A girl builds a rocket to travel to the moon in hopes of meeting the legendary Moon Goddess.",
    "release_date": "2020-10-16"
  }, {
    "popularity": 758.09,
    "vote_count": 618,
    "video": false,
    "poster_path": "\/qzA87Wf4jo1h8JMk9GilyIYvwsA.jpg",
    "id": 539885,
    "adult": false,
    "backdrop_path": "\/54yOImQgj8i85u9hxxnaIQBRUuo.jpg",
    "original_language": "en",
    "original_title": "Ava",
    "genre_ids": [28, 80, 18, 53],
    "title": "Ava",
    "vote_average": 5.7,
    "overview": "A black ops assassin is forced to fight for her own survival after a job goes dangerously wrong.",
    "release_date": "2020-07-02"
  }, {
    "popularity": 720.263,
    "vote_count": 764,
    "video": false,
    "poster_path": "\/sy6DvAu72kjoseZEjocnm2ZZ09i.jpg",
    "id": 581392,
    "adult": false,
    "backdrop_path": "\/gEjNlhZhyHeto6Fy5wWy5Uk3A9D.jpg",
    "original_language": "ko",
    "original_title": "반도",
    "genre_ids": [28, 27, 53],
    "title": "Peninsula",
    "vote_average": 7,
    "overview": "A soldier and his team battle hordes of post-apocalyptic zombies in the wastelands of the Korean Peninsula.",
    "release_date": "2020-07-15"
  }, {
    "popularity": 638.852,
    "id": 635302,
    "video": false,
    "vote_count": 68,
    "vote_average": 6.1,
    "title": "Demon Slayer: Kimetsu no Yaiba - The Movie: Mugen Train",
    "release_date": "2020-10-16",
    "original_language": "ja",
    "original_title": "劇場版「鬼滅の刃」無限列車編",
    "genre_ids": [16, 28, 36, 12, 14, 18],
    "backdrop_path": "\/xoqr4dMbRJnzuhsWDF3XNHQwJ9x.jpg",
    "adult": false,
    "overview": "Tanjirō Kamado, joined with Inosuke Hashibira, a boy raised by boars who wears a boar's head, and Zenitsu Agatsuma, a scared boy who reveals his true power when he sleeps, boards the Infinity Train on a new mission with the Fire Hashira, Kyōjurō Rengoku, to defeat a demon who has been tormenting the people and killing the demon slayers who oppose it!",
    "poster_path": "\/h8Rb9gBr48ODIwYUttZNYeMWeUU.jpg"
  }, {
    "popularity": 590.412,
    "vote_count": 30,
    "video": false,
    "poster_path": "\/e98dJUitAoKLwmzjQ0Yxp1VQrnU.jpg",
    "id": 571384,
    "adult": false,
    "backdrop_path": "\/5HahZPsGGaDgnFb68J49ZwdwU0b.jpg",
    "original_language": "en",
    "original_title": "Come Play",
    "genre_ids": [27],
    "title": "Come Play",
    "vote_average": 6.4,
    "overview": "A lonely young boy feels different from everyone else. Desperate for a friend, he seeks solace and refuge in his ever-present cell phone and tablet. When a mysterious creature uses the boy’s devices against him to break into our world, his parents must fight to save their son from the monster beyond the screen.",
    "release_date": "2020-10-28"
  }, {
    "popularity": 583.131,
    "vote_count": 28,
    "video": false,
    "poster_path": "\/4rjHhj1BAREc9zNFU8FheLJQdFf.jpg",
    "id": 621151,
    "adult": false,
    "backdrop_path": "\/5gllGAa3c9UqeRI8r6GXiQJIEtp.jpg",
    "original_language": "en",
    "original_title": "Spell",
    "genre_ids": [53, 27],
    "title": "Spell",
    "vote_average": 5.8,
    "overview": "A father survives a plane crash in rural Appalachia, but becomes suspicious of the elderly couple who take him in to nurse him back to health with the ancient remedies.",
    "release_date": "2020-10-30"
  }, {
    "popularity": 570.508,
    "vote_count": 352,
    "video": false,
    "poster_path": "\/uOw5JD8IlD546feZ6oxbIjvN66P.jpg",
    "id": 718444,
    "adult": false,
    "backdrop_path": "\/x4UkhIQuHIJyeeOTdcbZ3t3gBSa.jpg",
    "original_language": "en",
    "original_title": "Rogue",
    "genre_ids": [28, 12, 18, 53],
    "title": "Rogue",
    "vote_average": 5.8,
    "overview": "Battle-hardened O’Hara leads a lively mercenary team of soldiers on a daring mission: rescue hostages from their captors in remote Africa. But as the mission goes awry and the team is stranded, O’Hara’s squad must face a bloody, brutal encounter with a gang of rebels.",
    "release_date": "2020-08-20"
  }, {
    "popularity": 480.559,
    "vote_count": 178,
    "video": false,
    "poster_path": "\/3eg0kGC2Xh0vhydJHO37Sp4cmMt.jpg",
    "id": 531499,
    "adult": false,
    "backdrop_path": "\/zogWnCSztU8xvabaepQnAwsOtOt.jpg",
    "original_language": "en",
    "original_title": "The Tax Collector",
    "genre_ids": [28, 80, 18],
    "title": "The Tax Collector",
    "vote_average": 6,
    "overview": "David Cuevas is a family man who works as a gangland tax collector for high ranking Los Angeles gang members. He makes collections across the city with his partner Creeper making sure people pay up or will see retaliation. An old threat returns to Los Angeles that puts everything David loves in harm’s way.",
    "release_date": "2020-08-07"
  }, {
    "popularity": 464.855,
    "vote_count": 428,
    "video": false,
    "poster_path": "\/hPkqY2EMqWUnFEoedukilIUieVG.jpg",
    "id": 531876,
    "adult": false,
    "backdrop_path": "\/bzNYw5huKToRvrA4nLfmhOwsKht.jpg",
    "original_language": "en",
    "original_title": "The Outpost",
    "genre_ids": [10752, 18, 36, 28],
    "title": "The Outpost",
    "vote_average": 6.8,
    "overview": "A small unit of U.S. soldiers, alone at the remote Combat Outpost Keating, located deep in the valley of three mountains in Afghanistan, battles to defend against an overwhelming force of Taliban fighters in a coordinated attack. The Battle of Kamdesh, as it was known, was the bloodiest American engagement of the Afghan War in 2009 and Bravo Troop 3-61 CAV became one of the most decorated units of the 19-year conflict.",
    "release_date": "2020-06-24"
  }, {
    "popularity": 413.364,
    "vote_count": 40,
    "video": false,
    "poster_path": "\/5WXeYnezavNI6hXH74aQYv6yFzj.jpg",
    "id": 524216,
    "adult": false,
    "backdrop_path": "\/tsGSTBl5H8DBLnHc24Teny0Ppc5.jpg",
    "original_language": "en",
    "original_title": "The Mortuary Collection",
    "genre_ids": [14, 27],
    "title": "The Mortuary Collection",
    "vote_average": 6.7,
    "overview": "In the phantasmagorical town of Raven's End, a misguided young girl takes refuge in a decrepit old mortuary. The eccentric undertaker chronicles the strange history of the town through a series of twisted tales, each more terrifying than the last, but the young girl's world is unhinged when she discovers that the final story... is her own.",
    "release_date": "2020-10-08"
  }, {
    "popularity": 408.606,
    "vote_count": 120,
    "video": false,
    "poster_path": "\/yUFbPtWeDbVR3zmqshOaL5lScyo.jpg",
    "id": 425001,
    "adult": false,
    "backdrop_path": "\/a9jZrU7LJk6mAUjmkbEmTiC52l0.jpg",
    "original_language": "en",
    "original_title": "The War with Grandpa",
    "genre_ids": [35, 10751, 18],
    "title": "The War with Grandpa",
    "vote_average": 6,
    "overview": "Peter is thrilled that his Grandpa is coming to live with his family. That is, until Grandpa moves into Peter's room, forcing him upstairs into the creepy attic. And though he loves his Grandpa, he wants his room back - so he has no choice but to declare war.",
    "release_date": "2020-08-27"
  }],
  "page": 1,
  "total_results": 1503,
  "dates": {
    "maximum": "2020-11-14",
    "minimum": "2020-09-27"
  },
  "total_pages": 76
}